{
  "jira.server.url" : "http://localhost:8080",
  "jira.auth.token" : "cHJlY29tbWl0Omxld********",
  "jira.notify.email" : "true",
  "jira.issue.patterns" : [
    "\\b(\\S+-\\d+)\\b",
    "(\\[\\S+-\\d+\\])",
    "(\\(\\S+-\\d+\\))",
    "(\\[JIRA\\s+\\S+-\\d+\\])"
  ],
  "perforce.server.port" : "localhost:1666",
  "perforce.server.web" : "http://localhost:8081/{0}?ac=10",
  "perforce.username" : "",
  "perforce.password" : ""
}
