{
  "jira.cloud.scm.url" : "https://scmchangesets.ilaesolution.com/scmchangesets/custom/push?clientKey=fd4a2eba-***&securityToken=***",
  "jira.issue.patterns" : [
    "\\b(\\S+-\\d+)\\b",
    "(\\[\\S+-\\d+\\])",
    "(\\(\\S+-\\d+\\))",
    "(\\[JIRA\\s+\\S+-\\d+\\])"
  ],
  "perforce.server.port" : "localhost:1666",
  "perforce.server.web" : "http://localhost:8081/{0}?ac=10",
  "perforce.username" : "",
  "perforce.password" : ""
}
