{
  "jira.cloud.scm.url" : "https://scmchangesets.ilaesolution.com/scmchangesets/custom/push?clientKey=fd4a2eba-***&securityToken=***",
  "jira.issue.patterns" : [
    "\\b(\\S+-\\d+)\\b",
    "(\\[\\S+-\\d+\\])",
    "(\\(\\S+-\\d+\\))",
    "(\\[JIRA\\s+\\S+-\\d+\\])"
  ],
  "collaborator.web" : "http://localhost:8085/ui#review:id={0}"
}
